Project 1 - Result
…
Provide further details on contributions from the team members below:

NOTE: If you have used AI(s) in producing some of your work, please list the respective AI(s) as a collaborator in the Team members table above. In this case, please also describe the contribution from the input of the AI(s) in the textbox above, as well as provide details on how you have used the AI(s) in the process.

1.2 Overview of the data

We will work with the storms data set coming with the dplyr package.

storms: from NOAA Atlantic hurricane database, measured every 6 hours during the lifetime of a storm.

Use select to see the numerical, character, and factor variables in the dataframe.

# A tibble: 19,066 × 11
    year month   day  hour   lat  long category  wind pressure
   <dbl> <dbl> <int> <dbl> <dbl> <dbl>    <dbl> <int>    <int>
 1  1975     6    27     0  27.5 -79         NA    25     1013
 2  1975     6    27     6  28.5 -79         NA    25     1013
 3  1975     6    27    12  29.5 -79         NA    25     1013
 4  1975     6    27    18  30.5 -79         NA    25     1013
 5  1975     6    28     0  31.5 -78.8       NA    25     1012
 6  1975     6    28     6  32.4 -78.7       NA    25     1012
 7  1975     6    28    12  33.3 -78         NA    25     1011
 8  1975     6    28    18  34   -77         NA    30     1006
 9  1975     6    29     0  34.4 -75.8       NA    35     1004
10  1975     6    29     6  34   -74.8       NA    40     1002
# ℹ 19,056 more rows
# ℹ 2 more variables: tropicalstorm_force_diameter <int>,
#   hurricane_force_diameter <int>

# A tibble: 19,066 × 1
   name 
   <chr>
 1 Amy  
 2 Amy  
 3 Amy  
 4 Amy  
 5 Amy  
 6 Amy  
 7 Amy  
 8 Amy  
 9 Amy  
10 Amy  
# ℹ 19,056 more rows

# A tibble: 19,066 × 1
   status             
   <fct>              
 1 tropical depression
 2 tropical depression
 3 tropical depression
 4 tropical depression
 5 tropical depression
 6 tropical depression
 7 tropical depression
 8 tropical depression
 9 tropical storm     
10 tropical storm     
# ℹ 19,056 more rows
…
We will later create a new ordinal type (a special <fctr> type) variable to capture the same information.

1.3 Rough idea

Get some rough idea on the whole data set, such as period and (rough) total number of storms recorded. Here we follow the reasonable idea that the storms are uniquely determined by the year and name.

# A tibble: 1 × 3
  start_year end_year count
       <dbl>    <dbl> <int>
1       1975     2021   639

Can summarize along other variables to see their ranges, such as storm strength (in terms of wind speed) and the latitudes storms go to in each year.

# A tibble: 47 × 5
    year min_wind max_wind min_lat max_lat
   <dbl>    <int>    <int>   <dbl>   <dbl>
 1  1975       20      120    10.3    55  
 2  1976       20      105    12.5    46.5
 3  1977       20      150    17.2    49.5
 4  1978       15      120    12      57  
 5  1979       15      150    10      52.5
 6  1980       20      165    10.7    54  
 7  1981       20      115    10.5    45.1
 8  1982       20      115    13.7    51.8
 9  1983       20      100    25.1    41.7
10  1984       15      115    10.5    46.2
# ℹ 37 more rows
…
One issue: Probably one tropical storm with a hurricane strength wind.

Check it out by filtering for a tropical storm that has wind speed larger than 65.

# A tibble: 1 × 13
  name   year month   day  hour   lat  long status       category  wind pressure
  <chr> <dbl> <dbl> <int> <dbl> <dbl> <dbl> <fct>           <dbl> <int>    <int>
1 Emily  2005     7    20    18    25 -98.7 tropical st…       NA    70      975
# ℹ 2 more variables: tropicalstorm_force_diameter <int>,
#   hurricane_force_diameter <int>

So it is storm Emily in 2005. Let’s find out more about the particular storm, by filtering for all the rows about the named storm in the given year.

# A tibble: 45 × 13
   name   year month   day  hour   lat  long status      category  wind pressure
   <chr> <dbl> <dbl> <int> <dbl> <dbl> <dbl> <fct>          <dbl> <int>    <int>
 1 Emily  2005     7    11     0  10.7 -42.4 tropical d…       NA    25     1010
 2 Emily  2005     7    11     6  10.8 -43.4 tropical d…       NA    30     1009
 3 Emily  2005     7    11    12  10.9 -44.4 tropical d…       NA    30     1009
 4 Emily  2005     7    11    18  11   -45.4 tropical d…       NA    30     1007
 5 Emily  2005     7    12     0  11   -46.8 tropical s…       NA    35     1006
 6 Emily  2005     7    12     6  11   -48.5 tropical s…       NA    40     1005
 7 Emily  2005     7    12    12  11   -50.2 tropical s…       NA    45     1004
 8 Emily  2005     7    12    18  11   -52   tropical s…       NA    45     1004
 9 Emily  2005     7    13     0  11   -53.7 tropical s…       NA    45     1003
10 Emily  2005     7    13     6  11.1 -55.4 tropical s…       NA    45     1003
# ℹ 35 more rows
# ℹ 2 more variables: tropicalstorm_force_diameter <int>,
#   hurricane_force_diameter <int>
…
  mutate(
    status = if_else(
      !((name == 'Emily') & (year == 2005) & (month == 7) & (day == 20) & (hour == 18)),
      status,
      'hurricane'
      ),
    category = if_else(
      !((name == 'Emily') & (year == 2005) & (month == 7) & (day == 20) & (hour == 18)),
      category,
      1
      )
    )
)

# A tibble: 19,066 × 13
   name   year month   day  hour   lat  long status      category  wind pressure
   <chr> <dbl> <dbl> <int> <dbl> <dbl> <dbl> <chr>          <dbl> <int>    <int>
 1 Amy    1975     6    27     0  27.5 -79   tropical d…       NA    25     1013
 2 Amy    1975     6    27     6  28.5 -79   tropical d…       NA    25     1013
 3 Amy    1975     6    27    12  29.5 -79   tropical d…       NA    25     1013
 4 Amy    1975     6    27    18  30.5 -79   tropical d…       NA    25     1013
 5 Amy    1975     6    28     0  31.5 -78.8 tropical d…       NA    25     1012
 6 Amy    1975     6    28     6  32.4 -78.7 tropical d…       NA    25     1012
 7 Amy    1975     6    28    12  33.3 -78   tropical d…       NA    25     1011
 8 Amy    1975     6    28    18  34   -77   tropical d…       NA    30     1006
 9 Amy    1975     6    29     0  34.4 -75.8 tropical s…       NA    35     1004
10 Amy    1975     6    29     6  34   -74.8 tropical s…       NA    40     1002
# ℹ 19,056 more rows
# ℹ 2 more variables: tropicalstorm_force_diameter <int>,
#   hurricane_force_diameter <int>

Then make a new variable factor_cat with levels from 0 up to 5, and assign level 0 when the value of category is missing.

(new2_storms <- new_storms |>
  mutate(
    factor_cat = if_else(is.na(category), 0, category) |>
      factor(
        ordered = TRUE,
        levels = c(0, 1, 2, 3, 4, 5)
        ) # create `factor_cat` to be category as <ord> type
    )
)

# A tibble: 19,066 × 14
   name   year month   day  hour   lat  long status      category  wind pressure
   <chr> <dbl> <dbl> <int> <dbl> <dbl> <dbl> <chr>          <dbl> <int>    <int>
 1 Amy    1975     6    27     0  27.5 -79   tropical d…       NA    25     1013
 2 Amy    1975     6    27     6  28.5 -79   tropical d…       NA    25     1013
 3 Amy    1975     6    27    12  29.5 -79   tropical d…       NA    25     1013
 4 Amy    1975     6    27    18  30.5 -79   tropical d…       NA    25     1013
 5 Amy    1975     6    28     0  31.5 -78.8 tropical d…       NA    25     1012
 6 Amy    1975     6    28     6  32.4 -78.7 tropical d…       NA    25     1012
 7 Amy    1975     6    28    12  33.3 -78   tropical d…       NA    25     1011
 8 Amy    1975     6    28    18  34   -77   tropical d…       NA    30     1006
 9 Amy    1975     6    29     0  34.4 -75.8 tropical s…       NA    35     1004
10 Amy    1975     6    29     6  34   -74.8 tropical s…       NA    40     1002
# ℹ 19,056 more rows
# ℹ 3 more variables: tropicalstorm_force_diameter <int>,
#   hurricane_force_diameter <int>, factor_cat <ord>
…
Some averages don’t make sense, at least not obviously. For example, the following computes the average strength for wind speed recorded in each year.

new_storms |>
  summarize(
    mean_wind = mean(wind, na.rm = TRUE), 
    .by = year
    )

# A tibble: 47 × 2
    year mean_wind
   <dbl>     <dbl>
 1  1975      52.4
 2  1976      56.3
 3  1977      49.0
 4  1978      51.6
 5  1979      47.9
 6  1980      60.8
 7  1981      51.8
 8  1982      48.6
 9  1983      45  
10  1984      48.4
# ℹ 37 more rows
…
